…
    ## `summarise()` has grouped output by 'Sample'. You can override using the
    ## `.groups` argument.

    ## # A tibble: 41 × 3
    ## # Groups:   Sample [41]
    ##    Sample                WinterGroup Tot_abundance
    ##    <chr>                 <fct>               <dbl>
    ##  1 LP_ICE_21_Snow1       Snow               0.0484
    ##  2 LP_ICE_21_Snow2       Snow               0.0994
    ##  3 LP_ICE_21_Snow3       Snow               0.0153
    ##  4 LP_ICE_21_Snow4       Snow               0     
    ##  5 LP_ICE_21_Snow5       Snow               0.0586
    ##  6 LP_ICE_21_Snow6       Snow               0.150 
    ##  7 LP_ICE_21_Snow7       Snow               0     
    ##  8 LP_ICE_21_Core1_0-10  Ice_core           0.171 
    ##  9 LP_ICE_21_Core1_10-20 Ice_core           0.0178
    ## 10 LP_ICE_21_Core1_20-30 Ice_core           0.273 
    ## # ℹ 31 more rows
…
    ## `summarise()` has grouped output by 'Sample'. You can override using the
    ## `.groups` argument.

    ## # A tibble: 37 × 3
    ## # Groups:   Sample [37]
    ##    Sample                WinterGroup Tot_abundance
    ##    <chr>                 <fct>               <dbl>
    ##  1 LP_ICE_21_Snow1       Snow               0.0330
    ##  2 LP_ICE_21_Snow2       Snow               0.0743
    ##  3 LP_ICE_21_Snow3       Snow               0.0371
    ##  4 LP_ICE_21_Snow4       Snow               0.0413
    ##  5 LP_ICE_21_Snow5       Snow               0.342 
    ##  6 LP_ICE_21_Snow6       Snow               0.916 
    ##  7 LP_ICE_21_Core1_10-20 Ice_core           0.747 
    ##  8 LP_ICE_21_Core1_20-30 Ice_core           5.51  
    ##  9 LP_ICE_21_Core1_30-40 Ice_core           1.18  
    ## 10 LP_ICE_21_Core1_40-50 Ice_core           0.701 
    ## # ℹ 27 more rows
…
